   ___           ___        __    _   ______
  / _ \_______  / _/__ ____/ /_  | | / /_  /
 / ___/ __/ _ \/ _/ -_) __/ __/  | |/ / / / 
/_/  /_/  \___/_/ \__/\__/\__/   |___/ /_/  
                                            